…
``` r
acs %>%
  filter(region == "tract", density < CA_DENSITY) %>% 
  arrange(density) %>% 
  mutate(cum_area = cumsum(area_land) / sum(area_land)) %>% 
  select(density, cum_area) %>% 
  filter(
    near(cum_area, 0.25, 0.01) |
    near(cum_area, 0.50, 0.01) |
    near(cum_area, 0.75, 0.01)
  )
```

    ## # A tibble: 21 x 2
    ##      density  cum_area
    ##        <dbl>     <dbl>
    ##  1  1.248830 0.2443873
    ##  2  1.506422 0.2484039
    ##  3  1.531814 0.2535154
    ##  4  4.673983 0.4932414
    ##  5  4.747737 0.4983640
    ##  6  4.778979 0.5021710
    ##  7  4.858921 0.5023277
    ##  8  5.223747 0.5039008
    ##  9  5.224692 0.5066251
    ## 10 14.345220 0.7421994
    ## # ... with 11 more rows

``` r
acs %>% 
  filter(region == "tract", density >= CA_DENSITY) %>% 
  arrange(density) %>% 
  mutate(cum_area = cumsum(area_land) / sum(area_land)) %>% 
  select(density, cum_area) %>% 
  filter(
    near(cum_area, 0.25, 0.001) |
    near(cum_area, 0.50, 0.001) |
    near(cum_area, 0.75, 0.001)
  )
```

    ## # A tibble: 27 x 2
    ##      density  cum_area
    ##        <dbl>     <dbl>
    ##  1  550.8173 0.2493966
    ##  2  552.9632 0.2505440
    ##  3 1406.8323 0.4993440
    ##  4 1407.7990 0.4994842
    ##  5 1409.2411 0.4998045
    ##  6 1411.0361 0.5002698
    ##  7 1415.1566 0.5008533
    ##  8 1415.3320 0.5009992
    ##  9 4217.8882 0.7491209
    ## 10 4218.5474 0.7491579
    ## # ... with 17 more rows
…
